[
  {
    "name": "Pikachu",
    "score": "71",
    "id": "1"
  },
  {
    "name": "Charmander",
    "score": "10",
    "id": "2"
  },
  {
    "name": "Snorlax",
    "score": "15",
    "id": "3"
  },
  {
    "name": "Psyduck",
    "score": "50",
    "id": "4"
  },
  {
    "name": "Bulbazaur",
    "score": "33",
    "id": "5"
  },
  {
    "name": "Togepi",
    "score": "21",
    "id": "6"
  }
]
